<?xml version="1.0" encoding="UTF-8"?>
<ModuleFile xmlns:xsi="http://www.w3.org/2001/XMLSchema-instance">

<UiMod name="LibRange" version="1.3.1" date="23/10/2010" >
	<VersionSettings gameVersion="1.3.6" windowsVersion="1.0" savedVariablesVersion="1.0" />
	<Author name="Philosound aka Wothor" email="philosound@gmail.com" />
	<Description text="Delivers Range Info for Group and Warband members" />

	<Dependencies>
		<Dependency name="EASystem_Utils" optional="false" forceEnable="true" />
		<!--<Dependency name="Busted" optional="true" forceEnable="false" />-->
	</Dependencies>

	<Files>
		<File name="LibRange.lua" />
	</Files>
	
	<OnInitialize>
		<CallFunction name="LibRange.Initialize" />
	</OnInitialize>

	<OnUpdate>
		<!--<CallFunction name="LibRange.OnUpdate" />-->
	</OnUpdate>

	<OnShutdown>
		<!--<CallFunction name="LibRange.Shutdown" />-->
	</OnShutdown>
	
	<SavedVariables />
	
	<WARInfo>
		<Categories>
			<Category name="BUFFS_DEBUFFS" />
			<Category name="SYSTEM" />
			<Category name="DEVELOPMENT" />
			<Category name="OTHER" />
		</Categories>
		<Careers>
			<Career name="BLACKGUARD" />
			<Career name="WITCH_ELF" />
			<Career name="DISCIPLE" />
			<Career name="SORCERER" />
			<Career name="IRON_BREAKER" />
			<Career name="SLAYER" />
			<Career name="RUNE_PRIEST" />
			<Career name="ENGINEER" />
			<Career name="BLACK_ORC" />
			<Career name="CHOPPA" />
			<Career name="SHAMAN" />
			<Career name="SQUIG_HERDER" />
			<Career name="WITCH_HUNTER" />
			<Career name="KNIGHT" />
			<Career name="BRIGHT_WIZARD" />
			<Career name="WARRIOR_PRIEST" />
			<Career name="CHOSEN" />
			<Career name="MARAUDER" />
			<Career name="ZEALOT" />
			<Career name="MAGUS" />
			<Career name="SWORDMASTER" />
			<Career name="SHADOW_WARRIOR" />
			<Career name="WHITE_LION" />
			<Career name="ARCHMAGE" />
		</Careers>
	</WARInfo>
</UiMod>
</ModuleFile>
